\BOOKMARK [1][-]{section.1}{Visual Studio Workflow Accelerators}{}% 1
\BOOKMARK [2][-]{subsection.1.1}{Navigation / Editing}{section.1}% 2
\BOOKMARK [2][-]{subsection.1.2}{Panel and Windows / UI}{section.1}% 3
\BOOKMARK [2][-]{subsection.1.3}{Debugging / Code Quality}{section.1}% 4
\BOOKMARK [1][-]{section.2}{Solutions vs Projects}{}% 5
\BOOKMARK [2][-]{subsection.2.1}{More keybinds}{section.2}% 6
\BOOKMARK [1][-]{section.3}{Resharper}{}% 7
\BOOKMARK [1][-]{section.4}{Splashkit}{}% 8
